hw/testbench.vcd
$date
	Thu Feb 16 12:01:49 2023
$end
$version
	Icarus Verilog
$end
$timescale
	1ps
$end
$scope module testbench $end
$var wire 1 ! trap $end
$var wire 1 " trace_valid $end
$var wire 36 # trace_data [35:0] $end
$var parameter 32 $ AXI_TEST $end
$var parameter 32 % VERBOSE $end
$var reg 1 & clk $end
$var reg 1 ' resetn $end
$var integer 32 ( trace_file [31:0] $end
$scope module top $end
$var wire 1 & clk $end
$var wire 3 ) mem_axi_awprot [2:0] $end
$var wire 1 ' resetn $end
$var wire 1 ! trap $end
$var wire 1 " trace_valid $end
$var wire 36 * trace_data [35:0] $end
$var wire 1 + tests_passed $end
$var wire 1 , mem_axi_wvalid $end
$var wire 4 - mem_axi_wstrb [3:0] $end
$var wire 1 . mem_axi_wready $end
$var wire 32 / mem_axi_wdata [31:0] $end
$var wire 1 0 mem_axi_rvalid $end
$var wire 1 1 mem_axi_rready $end
$var wire 32 2 mem_axi_rdata [31:0] $end
$var wire 1 3 mem_axi_bvalid $end
$var wire 1 4 mem_axi_bready $end
$var wire 1 5 mem_axi_awvalid $end
$var wire 1 6 mem_axi_awready $end
$var wire 32 7 mem_axi_awaddr [31:0] $end
$var wire 1 8 mem_axi_arvalid $end
$var wire 1 9 mem_axi_arready $end
$var wire 3 : mem_axi_arprot [2:0] $end
$var wire 32 ; mem_axi_araddr [31:0] $end
$var parameter 32 < AXI_TEST $end
$var parameter 32 = VERBOSE $end
$var reg 16 > count_cycle [15:0] $end
$var reg 1024 ? firmware_file [1023:0] $end
$var reg 32 @ irq [31:0] $end
$var integer 32 A cycle_counter [31:0] $end
$scope module mem $end
$var wire 1 & clk $end
$var wire 3 B mem_axi_awprot [2:0] $end
$var wire 1 , mem_axi_wvalid $end
$var wire 4 C mem_axi_wstrb [3:0] $end
$var wire 32 D mem_axi_wdata [31:0] $end
$var wire 1 1 mem_axi_rready $end
$var wire 1 4 mem_axi_bready $end
$var wire 1 5 mem_axi_awvalid $end
$var wire 32 E mem_axi_awaddr [31:0] $end
$var wire 1 8 mem_axi_arvalid $end
$var wire 3 F mem_axi_arprot [2:0] $end
$var wire 32 G mem_axi_araddr [31:0] $end
$var parameter 32 H AXI_TEST $end
$var parameter 32 I VERBOSE $end
$var reg 5 J async_axi_transaction [4:0] $end
$var reg 1 K axi_test $end
$var reg 5 L delay_axi_transaction [4:0] $end
$var reg 3 M fast_axi_transaction [2:0] $end
$var reg 1 N fast_raddr $end
$var reg 1 O fast_waddr $end
$var reg 1 P fast_wdata $end
$var reg 32 Q latched_raddr [31:0] $end
$var reg 1 R latched_raddr_en $end
$var reg 1 S latched_rinsn $end
$var reg 32 T latched_waddr [31:0] $end
$var reg 1 U latched_waddr_en $end
$var reg 32 V latched_wdata [31:0] $end
$var reg 1 W latched_wdata_en $end
$var reg 4 X latched_wstrb [3:0] $end
$var reg 1 9 mem_axi_arready $end
$var reg 1 6 mem_axi_awready $end
$var reg 1 3 mem_axi_bvalid $end
$var reg 32 Y mem_axi_rdata [31:0] $end
$var reg 1 0 mem_axi_rvalid $end
$var reg 1 . mem_axi_wready $end
$var reg 1 + tests_passed $end
$var reg 1 Z verbose $end
$var reg 64 [ xorshift64_state [63:0] $end
$scope task handle_axi_arvalid $end
$upscope $end
$scope task handle_axi_awvalid $end
$upscope $end
$scope task handle_axi_bvalid $end
$upscope $end
$scope task handle_axi_rvalid $end
$upscope $end
$scope task handle_axi_wvalid $end
$upscope $end
$scope task xorshift64_next $end
$upscope $end
$upscope $end
$scope module uut $end
$var wire 1 & clk $end
$var wire 32 \ irq [31:0] $end
$var wire 1 9 mem_axi_arready $end
$var wire 3 ] mem_axi_awprot [2:0] $end
$var wire 1 6 mem_axi_awready $end
$var wire 1 3 mem_axi_bvalid $end
$var wire 32 ^ mem_axi_rdata [31:0] $end
$var wire 1 0 mem_axi_rvalid $end
$var wire 1 . mem_axi_wready $end
$var wire 32 _ pcpi_rd [31:0] $end
$var wire 1 ` pcpi_ready $end
$var wire 1 a pcpi_wait $end
$var wire 1 b pcpi_wr $end
$var wire 1 ' resetn $end
$var wire 1 ! trap $end
$var wire 1 " trace_valid $end
$var wire 36 c trace_data [35:0] $end
$var wire 1 d pcpi_valid $end
$var wire 32 e pcpi_rs2 [31:0] $end
$var wire 32 f pcpi_rs1 [31:0] $end
$var wire 32 g pcpi_insn [31:0] $end
$var wire 4 h mem_wstrb [3:0] $end
$var wire 32 i mem_wdata [31:0] $end
$var wire 1 j mem_valid $end
$var wire 1 k mem_ready $end
$var wire 32 l mem_rdata [31:0] $end
$var wire 1 m mem_instr $end
$var wire 1 , mem_axi_wvalid $end
$var wire 4 n mem_axi_wstrb [3:0] $end
$var wire 32 o mem_axi_wdata [31:0] $end
$var wire 1 1 mem_axi_rready $end
$var wire 1 4 mem_axi_bready $end
$var wire 1 5 mem_axi_awvalid $end
$var wire 32 p mem_axi_awaddr [31:0] $end
$var wire 1 8 mem_axi_arvalid $end
$var wire 3 q mem_axi_arprot [2:0] $end
$var wire 32 r mem_axi_araddr [31:0] $end
$var wire 32 s mem_addr [31:0] $end
$var wire 32 t eoi [31:0] $end
$var parameter 1 u BARREL_SHIFTER $end
$var parameter 1 v CATCH_ILLINSN $end
$var parameter 1 w CATCH_MISALIGN $end
$var parameter 1 x COMPRESSED_ISA $end
$var parameter 1 y ENABLE_COUNTERS $end
$var parameter 1 z ENABLE_COUNTERS64 $end
$var parameter 1 { ENABLE_DIV $end
$var parameter 1 | ENABLE_FAST_MUL $end
$var parameter 1 } ENABLE_IRQ $end
$var parameter 1 ~ ENABLE_IRQ_QREGS $end
$var parameter 1 !" ENABLE_IRQ_TIMER $end
$var parameter 1 "" ENABLE_MUL $end
$var parameter 1 #" ENABLE_PCPI $end
$var parameter 1 $" ENABLE_REGS_16_31 $end
$var parameter 1 %" ENABLE_REGS_DUALPORT $end
$var parameter 1 &" ENABLE_TRACE $end
$var parameter 32 '" LATCHED_IRQ $end
$var parameter 32 (" MASKED_IRQ $end
$var parameter 32 )" PROGADDR_IRQ $end
$var parameter 32 *" PROGADDR_RESET $end
$var parameter 1 +" REGS_INIT_ZERO $end
$var parameter 32 ," STACKADDR $end
$var parameter 1 -" TWO_CYCLE_ALU $end
$var parameter 1 ." TWO_CYCLE_COMPARE $end
$var parameter 1 /" TWO_STAGE_SHIFT $end
$scope module axi_adapter $end
$var wire 1 & clk $end
$var wire 32 0" mem_axi_araddr [31:0] $end
$var wire 1 9 mem_axi_arready $end
$var wire 1 8 mem_axi_arvalid $end
$var wire 32 1" mem_axi_awaddr [31:0] $end
$var wire 3 2" mem_axi_awprot [2:0] $end
$var wire 1 6 mem_axi_awready $end
$var wire 1 5 mem_axi_awvalid $end
$var wire 1 4 mem_axi_bready $end
$var wire 1 3 mem_axi_bvalid $end
$var wire 32 3" mem_axi_rdata [31:0] $end
$var wire 1 1 mem_axi_rready $end
$var wire 1 0 mem_axi_rvalid $end
$var wire 32 4" mem_axi_wdata [31:0] $end
$var wire 1 . mem_axi_wready $end
$var wire 4 5" mem_axi_wstrb [3:0] $end
$var wire 1 , mem_axi_wvalid $end
$var wire 32 6" mem_rdata [31:0] $end
$var wire 1 k mem_ready $end
$var wire 1 ' resetn $end
$var wire 4 7" mem_wstrb [3:0] $end
$var wire 32 8" mem_wdata [31:0] $end
$var wire 1 j mem_valid $end
$var wire 1 m mem_instr $end
$var wire 3 9" mem_axi_arprot [2:0] $end
$var wire 32 :" mem_addr [31:0] $end
$var reg 1 ;" ack_arvalid $end
$var reg 1 <" ack_awvalid $end
$var reg 1 =" ack_wvalid $end
$var reg 1 >" xfer_done $end
$upscope $end
$scope module picorv32_core $end
$var wire 1 & clk $end
$var wire 32 ?" dbg_mem_addr [31:0] $end
$var wire 1 @" dbg_mem_instr $end
$var wire 32 A" dbg_mem_rdata [31:0] $end
$var wire 1 B" dbg_mem_ready $end
$var wire 1 C" dbg_mem_valid $end
$var wire 32 D" dbg_mem_wdata [31:0] $end
$var wire 4 E" dbg_mem_wstrb [3:0] $end
$var wire 1 F" instr_trap $end
$var wire 32 G" irq [31:0] $end
$var wire 1 H" launch_next_insn $end
$var wire 1 I" mem_done $end
$var wire 1 J" mem_la_firstword $end
$var wire 1 K" mem_la_firstword_xfer $end
$var wire 1 L" mem_la_read $end
$var wire 1 M" mem_la_use_prefetched_high_word $end
$var wire 1 N" mem_la_write $end
$var wire 32 O" mem_rdata [31:0] $end
$var wire 32 P" mem_rdata_latched [31:0] $end
$var wire 1 k mem_ready $end
$var wire 1 Q" mem_xfer $end
$var wire 32 R" pcpi_rd [31:0] $end
$var wire 1 ` pcpi_ready $end
$var wire 32 S" pcpi_rs1 [31:0] $end
$var wire 32 T" pcpi_rs2 [31:0] $end
$var wire 1 a pcpi_wait $end
$var wire 1 b pcpi_wr $end
$var wire 1 ' resetn $end
$var wire 1 U" pcpi_mul_wr $end
$var wire 1 V" pcpi_mul_wait $end
$var wire 1 W" pcpi_mul_ready $end
$var wire 32 X" pcpi_mul_rd [31:0] $end
$var wire 1 Y" pcpi_div_wr $end
$var wire 1 Z" pcpi_div_wait $end
$var wire 1 [" pcpi_div_ready $end
$var wire 32 \" pcpi_div_rd [31:0] $end
$var wire 32 ]" next_pc [31:0] $end
$var wire 32 ^" mem_rdata_latched_noshuffle [31:0] $end
$var wire 32 _" mem_la_addr [31:0] $end
$var wire 1 `" mem_busy $end
$var wire 1 a" is_rdcycle_rdcycleh_rdinstr_rdinstrh $end
$var parameter 1 b" BARREL_SHIFTER $end
$var parameter 1 c" CATCH_ILLINSN $end
$var parameter 1 d" CATCH_MISALIGN $end
$var parameter 1 e" COMPRESSED_ISA $end
$var parameter 1 f" ENABLE_COUNTERS $end
$var parameter 1 g" ENABLE_COUNTERS64 $end
$var parameter 1 h" ENABLE_DIV $end
$var parameter 1 i" ENABLE_FAST_MUL $end
$var parameter 1 j" ENABLE_IRQ $end
$var parameter 1 k" ENABLE_IRQ_QREGS $end
$var parameter 1 l" ENABLE_IRQ_TIMER $end
$var parameter 1 m" ENABLE_MUL $end
$var parameter 1 n" ENABLE_PCPI $end
$var parameter 1 o" ENABLE_REGS_16_31 $end
$var parameter 1 p" ENABLE_REGS_DUALPORT $end
$var parameter 1 q" ENABLE_TRACE $end
$var parameter 32 r" LATCHED_IRQ $end
$var parameter 1 s" LATCHED_MEM_RDATA $end
$var parameter 32 t" MASKED_IRQ $end
$var parameter 32 u" PROGADDR_IRQ $end
$var parameter 32 v" PROGADDR_RESET $end
$var parameter 1 w" REGS_INIT_ZERO $end
$var parameter 32 x" STACKADDR $end
$var parameter 36 y" TRACE_ADDR $end
$var parameter 36 z" TRACE_BRANCH $end
$var parameter 36 {" TRACE_IRQ $end
$var parameter 1 |" TWO_CYCLE_ALU $end
$var parameter 1 }" TWO_CYCLE_COMPARE $end
$var parameter 1 ~" TWO_STAGE_SHIFT $end
$var parameter 1 !# WITH_PCPI $end
$var parameter 8 "# cpu_state_exec $end
$var parameter 8 ## cpu_state_fetch $end
$var parameter 8 $# cpu_state_ld_rs1 $end
$var parameter 8 %# cpu_state_ld_rs2 $end
$var parameter 8 &# cpu_state_ldmem $end
$var parameter 8 '# cpu_state_shift $end
$var parameter 8 (# cpu_state_stmem $end
$var parameter 8 )# cpu_state_trap $end
$var parameter 32 *# irq_buserror $end
$var parameter 32 +# irq_ebreak $end
$var parameter 32 ,# irq_timer $end
$var parameter 32 -# irqregs_offset $end
$var parameter 32 .# regfile_size $end
$var parameter 32 /# regindex_bits $end
$var reg 32 0# alu_add_sub [31:0] $end
$var reg 1 1# alu_eq $end
$var reg 1 2# alu_lts $end
$var reg 1 3# alu_ltu $end
$var reg 32 4# alu_out [31:0] $end
$var reg 1 5# alu_out_0 $end
$var reg 1 6# alu_out_0_q $end
$var reg 32 7# alu_out_q [31:0] $end
$var reg 32 8# alu_shl [31:0] $end
$var reg 32 9# alu_shr [31:0] $end
$var reg 1 :# alu_wait $end
$var reg 1 ;# alu_wait_2 $end
$var reg 64 <# cached_ascii_instr [63:0] $end
$var reg 32 =# cached_insn_imm [31:0] $end
$var reg 32 ># cached_insn_opcode [31:0] $end
$var reg 5 ?# cached_insn_rd [4:0] $end
$var reg 5 @# cached_insn_rs1 [4:0] $end
$var reg 5 A# cached_insn_rs2 [4:0] $end
$var reg 1 B# clear_prefetched_high_word $end
$var reg 1 C# clear_prefetched_high_word_q $end
$var reg 1 D# compressed_instr $end
$var reg 64 E# count_cycle [63:0] $end
$var reg 64 F# count_instr [63:0] $end
$var reg 8 G# cpu_state [7:0] $end
$var reg 32 H# cpuregs_rs1 [31:0] $end
$var reg 32 I# cpuregs_rs2 [31:0] $end
$var reg 32 J# cpuregs_wrdata [31:0] $end
$var reg 1 K# cpuregs_write $end
$var reg 32 L# current_pc [31:0] $end
$var reg 64 M# dbg_ascii_instr [63:0] $end
$var reg 128 N# dbg_ascii_state [127:0] $end
$var reg 32 O# dbg_insn_addr [31:0] $end
$var reg 32 P# dbg_insn_imm [31:0] $end
$var reg 32 Q# dbg_insn_opcode [31:0] $end
$var reg 5 R# dbg_insn_rd [4:0] $end
$var reg 5 S# dbg_insn_rs1 [4:0] $end
$var reg 5 T# dbg_insn_rs2 [4:0] $end
$var reg 1 U# dbg_next $end
$var reg 32 V# dbg_rs1val [31:0] $end
$var reg 1 W# dbg_rs1val_valid $end
$var reg 32 X# dbg_rs2val [31:0] $end
$var reg 1 Y# dbg_rs2val_valid $end
$var reg 1 Z# dbg_valid_insn $end
$var reg 32 [# decoded_imm [31:0] $end
$var reg 32 \# decoded_imm_j [31:0] $end
$var reg 5 ]# decoded_rd [4:0] $end
$var reg 5 ^# decoded_rs [4:0] $end
$var reg 5 _# decoded_rs1 [4:0] $end
$var reg 5 `# decoded_rs2 [4:0] $end
$var reg 1 a# decoder_pseudo_trigger $end
$var reg 1 b# decoder_pseudo_trigger_q $end
$var reg 1 c# decoder_trigger $end
$var reg 1 d# decoder_trigger_q $end
$var reg 1 e# do_waitirq $end
$var reg 32 f# eoi [31:0] $end
$var reg 1 g# instr_add $end
$var reg 1 h# instr_addi $end
$var reg 1 i# instr_and $end
$var reg 1 j# instr_andi $end
$var reg 1 k# instr_auipc $end
$var reg 1 l# instr_beq $end
$var reg 1 m# instr_bge $end
$var reg 1 n# instr_bgeu $end
$var reg 1 o# instr_blt $end
$var reg 1 p# instr_bltu $end
$var reg 1 q# instr_bne $end
$var reg 1 r# instr_ecall_ebreak $end
$var reg 1 s# instr_getq $end
$var reg 1 t# instr_jal $end
$var reg 1 u# instr_jalr $end
$var reg 1 v# instr_lb $end
$var reg 1 w# instr_lbu $end
$var reg 1 x# instr_lh $end
$var reg 1 y# instr_lhu $end
$var reg 1 z# instr_lui $end
$var reg 1 {# instr_lw $end
$var reg 1 |# instr_maskirq $end
$var reg 1 }# instr_or $end
$var reg 1 ~# instr_ori $end
$var reg 1 !$ instr_rdcycle $end
$var reg 1 "$ instr_rdcycleh $end
$var reg 1 #$ instr_rdinstr $end
$var reg 1 $$ instr_rdinstrh $end
$var reg 1 %$ instr_retirq $end
$var reg 1 &$ instr_sb $end
$var reg 1 '$ instr_setq $end
$var reg 1 ($ instr_sh $end
$var reg 1 )$ instr_sll $end
$var reg 1 *$ instr_slli $end
$var reg 1 +$ instr_slt $end
$var reg 1 ,$ instr_slti $end
$var reg 1 -$ instr_sltiu $end
$var reg 1 .$ instr_sltu $end
$var reg 1 /$ instr_sra $end
$var reg 1 0$ instr_srai $end
$var reg 1 1$ instr_srl $end
$var reg 1 2$ instr_srli $end
$var reg 1 3$ instr_sub $end
$var reg 1 4$ instr_sw $end
$var reg 1 5$ instr_timer $end
$var reg 1 6$ instr_waitirq $end
$var reg 1 7$ instr_xor $end
$var reg 1 8$ instr_xori $end
$var reg 1 9$ irq_active $end
$var reg 1 :$ irq_delay $end
$var reg 32 ;$ irq_mask [31:0] $end
$var reg 32 <$ irq_pending [31:0] $end
$var reg 2 =$ irq_state [1:0] $end
$var reg 1 >$ is_alu_reg_imm $end
$var reg 1 ?$ is_alu_reg_reg $end
$var reg 1 @$ is_beq_bne_blt_bge_bltu_bgeu $end
$var reg 1 A$ is_compare $end
$var reg 1 B$ is_jalr_addi_slti_sltiu_xori_ori_andi $end
$var reg 1 C$ is_lb_lh_lw_lbu_lhu $end
$var reg 1 D$ is_lbu_lhu_lw $end
$var reg 1 E$ is_lui_auipc_jal $end
$var reg 1 F$ is_lui_auipc_jal_jalr_addi_add_sub $end
$var reg 1 G$ is_sb_sh_sw $end
$var reg 1 H$ is_sll_srl_sra $end
$var reg 1 I$ is_slli_srli_srai $end
$var reg 1 J$ is_slti_blt_slt $end
$var reg 1 K$ is_sltiu_bltu_sltu $end
$var reg 1 L$ last_mem_valid $end
$var reg 1 M$ latched_branch $end
$var reg 1 N$ latched_compr $end
$var reg 1 O$ latched_is_lb $end
$var reg 1 P$ latched_is_lh $end
$var reg 1 Q$ latched_is_lu $end
$var reg 5 R$ latched_rd [4:0] $end
$var reg 1 S$ latched_stalu $end
$var reg 1 T$ latched_store $end
$var reg 1 U$ latched_trace $end
$var reg 32 V$ mem_addr [31:0] $end
$var reg 1 W$ mem_do_prefetch $end
$var reg 1 X$ mem_do_rdata $end
$var reg 1 Y$ mem_do_rinst $end
$var reg 1 Z$ mem_do_wdata $end
$var reg 1 m mem_instr $end
$var reg 1 [$ mem_la_firstword_reg $end
$var reg 1 \$ mem_la_secondword $end
$var reg 32 ]$ mem_la_wdata [31:0] $end
$var reg 4 ^$ mem_la_wstrb [3:0] $end
$var reg 32 _$ mem_rdata_q [31:0] $end
$var reg 32 `$ mem_rdata_word [31:0] $end
$var reg 2 a$ mem_state [1:0] $end
$var reg 1 j mem_valid $end
$var reg 32 b$ mem_wdata [31:0] $end
$var reg 2 c$ mem_wordsize [1:0] $end
$var reg 4 d$ mem_wstrb [3:0] $end
$var reg 64 e$ new_ascii_instr [63:0] $end
$var reg 32 f$ next_insn_opcode [31:0] $end
$var reg 32 g$ next_irq_pending [31:0] $end
$var reg 32 h$ pcpi_insn [31:0] $end
$var reg 32 i$ pcpi_int_rd [31:0] $end
$var reg 1 j$ pcpi_int_ready $end
$var reg 1 k$ pcpi_int_wait $end
$var reg 1 l$ pcpi_int_wr $end
$var reg 1 m$ pcpi_timeout $end
$var reg 4 n$ pcpi_timeout_counter [3:0] $end
$var reg 1 d pcpi_valid $end
$var reg 1 o$ prefetched_high_word $end
$var reg 64 p$ q_ascii_instr [63:0] $end
$var reg 32 q$ q_insn_imm [31:0] $end
$var reg 32 r$ q_insn_opcode [31:0] $end
$var reg 5 s$ q_insn_rd [4:0] $end
$var reg 5 t$ q_insn_rs1 [4:0] $end
$var reg 5 u$ q_insn_rs2 [4:0] $end
$var reg 32 v$ reg_next_pc [31:0] $end
$var reg 32 w$ reg_op1 [31:0] $end
$var reg 32 x$ reg_op2 [31:0] $end
$var reg 32 y$ reg_out [31:0] $end
$var reg 32 z$ reg_pc [31:0] $end
$var reg 5 {$ reg_sh [4:0] $end
$var reg 1 |$ set_mem_do_rdata $end
$var reg 1 }$ set_mem_do_rinst $end
$var reg 1 ~$ set_mem_do_wdata $end
$var reg 32 !% timer [31:0] $end
$var reg 36 "% trace_data [35:0] $end
$var reg 1 " trace_valid $end
$var reg 1 ! trap $end
$scope begin genblk1 $end
$scope module pcpi_mul $end
$var wire 1 & clk $end
$var wire 1 #% mul_start $end
$var wire 32 $% pcpi_insn [31:0] $end
$var wire 32 %% pcpi_rs1 [31:0] $end
$var wire 32 &% pcpi_rs2 [31:0] $end
$var wire 1 d pcpi_valid $end
$var wire 1 ' resetn $end
$var wire 1 '% instr_rs2_signed $end
$var wire 1 (% instr_rs1_signed $end
$var wire 1 )% instr_any_mulh $end
$var wire 1 *% instr_any_mul $end
$var parameter 32 +% CARRY_CHAIN $end
$var parameter 32 ,% STEPS_AT_ONCE $end
$var reg 1 -% instr_mul $end
$var reg 1 .% instr_mulh $end
$var reg 1 /% instr_mulhsu $end
$var reg 1 0% instr_mulhu $end
$var reg 7 1% mul_counter [6:0] $end
$var reg 1 2% mul_finish $end
$var reg 1 3% mul_waiting $end
$var reg 64 4% next_rd [63:0] $end
$var reg 64 5% next_rdt [63:0] $end
$var reg 64 6% next_rdx [63:0] $end
$var reg 64 7% next_rs1 [63:0] $end
$var reg 64 8% next_rs2 [63:0] $end
$var reg 32 9% pcpi_rd [31:0] $end
$var reg 1 W" pcpi_ready $end
$var reg 1 V" pcpi_wait $end
$var reg 1 :% pcpi_wait_q $end
$var reg 1 U" pcpi_wr $end
$var reg 64 ;% rd [63:0] $end
$var reg 64 <% rdx [63:0] $end
$var reg 64 =% rs1 [63:0] $end
$var reg 64 >% rs2 [63:0] $end
$var reg 64 ?% this_rs2 [63:0] $end
$var integer 32 @% i [31:0] $end
$var integer 32 A% j [31:0] $end
$upscope $end
$upscope $end
$scope begin genblk2 $end
$scope module pcpi_div $end
$var wire 1 & clk $end
$var wire 32 B% pcpi_insn [31:0] $end
$var wire 32 C% pcpi_rs1 [31:0] $end
$var wire 32 D% pcpi_rs2 [31:0] $end
$var wire 1 d pcpi_valid $end
$var wire 1 ' resetn $end
$var wire 1 E% start $end
$var wire 1 F% instr_any_div_rem $end
$var reg 32 G% dividend [31:0] $end
$var reg 63 H% divisor [62:0] $end
$var reg 1 I% instr_div $end
$var reg 1 J% instr_divu $end
$var reg 1 K% instr_rem $end
$var reg 1 L% instr_remu $end
$var reg 1 M% outsign $end
$var reg 32 N% pcpi_rd [31:0] $end
$var reg 1 [" pcpi_ready $end
$var reg 1 Z" pcpi_wait $end
$var reg 1 O% pcpi_wait_q $end
$var reg 1 Y" pcpi_wr $end
$var reg 32 P% quotient [31:0] $end
$var reg 32 Q% quotient_msk [31:0] $end
$var reg 1 R% running $end
$upscope $end
$upscope $end
$scope begin genblk3 $end
$upscope $end
$scope task empty_statement $end
$upscope $end
$upscope $end
$upscope $end
$upscope $end
$upscope $end
$enddefinitions $end
$comment Show the parameter values. $end
$dumpall
b1 ,%
b100 +%
b101 /#
b100000 .#
b100000 -#
b0 ,#
b1 +#
b10 *#
b10000000 )#
b10 (#
b100 '#
b1 &#
b10000 %#
b100000 $#
b1000000 ##
b1000 "#
1!#
1~"
0}"
0|"
b100000000000000000000000000000000000 {"
b100000000000000000000000000000000 z"
b1000000000000000000000000000000000 y"
b11111111111111111111111111111111 x"
0w"
b0 v"
b10000 u"
b0 t"
0s"
b11111111111111111111111111111111 r"
1q"
1p"
1o"
0n"
1m"
1l"
1k"
0j"
0i"
1h"
1g"
1f"
0e"
1d"
1c"
0b"
1/"
0."
0-"
b11111111111111111111111111111111 ,"
0+"
b0 *"
b10000 )"
b0 ("
b11111111111111111111111111111111 '"
1&"
1%"
1$"
0#"
1""
1!"
1~
0}
0|
1{
1z
1y
0x
1w
1v
0u
b1 I
b0 H
b1 =
b0 <
b1 %
b0 $
$end
#0
$dumpvars
0R%
bx Q%
bx P%
0O%
bx N%
xM%
0L%
0K%
0J%
0I%
bx H%
bx G%
0F%
0E%
bx D%
bx C%
bx B%
bx A%
bx @%
bx ?%
bx >%
bx =%
bx <%
bx ;%
x:%
bx 9%
bx 8%
bx 7%
bx 6%
bx 5%
bx 4%
13%
02%
bx 1%
00%
0/%
0.%
0-%
0*%
0)%
0(%
0'%
bx &%
bx %%
bx $%
x#%
bx "%
b0 !%
0~$
0}$
0|$
bx {$
b0 z$
bx y$
bx x$
bx w$
b0 v$
bx u$
bx t$
bx s$
bx r$
bx q$
bx p$
0o$
b1111 n$
0m$
0l$
xk$
0j$
bx i$
bx h$
b0 g$
bx f$
b0 e$
bx d$
bx c$
bx b$
b0 a$
bx `$
bx _$
bx ^$
bx ]$
0\$
0[$
0Z$
0Y$
0X$
0W$
bx V$
0U$
0T$
0S$
bx R$
0Q$
0P$
0O$
xN$
0M$
0L$
xK$
xJ$
xI$
xH$
xG$
xF$
xE$
xD$
xC$
xB$
0A$
0@$
x?$
x>$
b0 =$
b0 <$
b11111111111111111111111111111111 ;$
0:$
09$
08$
07$
x6$
x5$
x4$
03$
x2$
01$
x0$
0/$
0.$
0-$
0,$
0+$
x*$
0)$
x($
x'$
x&$
x%$
x$$
x#$
x"$
x!$
0~#
0}#
x|#
x{#
xz#
xy#
xx#
xw#
xv#
xu#
xt#
xs#
xr#
0q#
0p#
0o#
0n#
0m#
0l#
xk#
0j#
0i#
0h#
0g#
b0 f#
0e#
xd#
0c#
xb#
0a#
bx `#
bx _#
bx ^#
bx ]#
bx \#
bx [#
0Z#
xY#
bx X#
xW#
bx V#
xU#
bx T#
bx S#
bx R#
bx Q#
bx P#
bx O#
b110011001100101011101000110001101101000 N#
bx M#
bx L#
0K#
bx J#
bx I#
bx H#
b1000000 G#
b0 F#
b0 E#
xD#
xC#
0B#
bx A#
bx @#
bx ?#
bx >#
bx =#
bx <#
0;#
0:#
bx 9#
bx 8#
bx 7#
x6#
x5#
bx 4#
x3#
x2#
x1#
bx 0#
xa"
0`"
bx00 _"
bx ^"
b0 ]"
bx \"
0["
0Z"
0Y"
bx X"
0W"
xV"
0U"
bx T"
bx S"
bz R"
0Q"
bx P"
bx O"
0N"
0M"
0L"
0K"
0J"
0I"
0H"
b0 G"
xF"
bx E"
bx D"
0C"
0B"
bx A"
x@"
bx ?"
x>"
x="
0<"
x;"
bx :"
bx00 9"
bx 8"
bx 7"
bx 6"
bx 5"
bx 4"
bx 3"
b0 2"
bx 1"
bx 0"
b0 t
bx s
bx r
bx00 q
bx p
bx o
bx n
xm
bx l
0k
0j
bx i
bx h
bx g
bx f
bx e
0d
bx c
zb
za
z`
bz _
bx ^
b0 ]
b0 \
b100111001010000001000110111001011101111110111101001000100 [
1Z
bx Y
bx X
0W
bx V
0U
bx T
xS
0R
bx Q
0P
0O
0N
b111 M
b0 L
0K
b11111 J
bx G
bx00 F
bx E
bx D
bx C
b0 B
b0 A
b0 @
b101110001011100010111101110100011010010110111001111001011001100110100101110010011011010111011101100001011100100110010100101111011001100110100101110010011011010111011101100001011100100110010100101110011010000110010101111000 ?
b0 >
bx ;
bx00 :
09
08
bx 7
06
05
04
03
bx 2
01
00
bx /
0.
bx -
0,
0+
bx *
b0 )
b10000000000000000000000000000011 (
0'
1&
bx #
0"
0!
$end
#5000
0&
#10000
0#%
0k$
0b#
0d#
0C#
0K$
0J$
0U#
0V"
b0 g$
1&
#15000
0&
#20000
0:%
b0 g$
1&
#25000
0&
#30000
b0 g$
1&
#35000
0&
#40000
b0 g$
1&
#45000
0&
#50000
b0 g$
1&
#55000
0&
#60000
b0 g$
1&
#65000
0&
#70000
b0 g$
1&
#75000
0&
#80000
b0 g$
1&
#85000
0&
#90000
b0 g$
1&
#95000
0&
#100000
b0 g$
1&
#105000
0&
#110000
b0 g$
1&
#115000
0&
#120000
b0 g$
1&
#125000
0&
#130000
b0 g$
1&
#135000
0&
#140000
b0 g$
1&
#145000
0&
#150000
b0 g$
1&
#155000
0&
#160000
b0 g$
1&
#165000
0&
#170000
b0 g$
1&
#175000
0&
#180000
b0 g$
1&
#185000
0&
#190000
b0 g$
1&
#195000
0&
#200000
b0 g$
1&
#205000
0&
#210000
b0 g$
1&
#215000
0&
#220000
b0 g$
1&
#225000
0&
#230000
b0 g$
1&
#235000
0&
#240000
b0 g$
1&
#245000
0&
#250000
b0 g$
1&
#255000
0&
#260000
b0 g$
1&
#265000
0&
#270000
b0 g$
1&
#275000
0&
#280000
b0 g$
1&
#285000
0&
#290000
b0 g$
1&
#295000
0&
#300000
b0 g$
1&
#305000
0&
#310000
b0 g$
1&
#315000
0&
#320000
b0 g$
1&
#325000
0&
#330000
b0 g$
1&
#335000
0&
#340000
b0 g$
1&
#345000
0&
#350000
b0 g$
1&
#355000
0&
#360000
b0 g$
1&
#365000
0&
#370000
b0 g$
1&
#375000
0&
#380000
b0 g$
1&
#385000
0&
#390000
b0 g$
1&
#395000
0&
#400000
b0 g$
1&
#405000
0&
#410000
b0 g$
1&
#415000
0&
#420000
b0 g$
1&
#425000
0&
#430000
b0 g$
1&
#435000
0&
#440000
b0 g$
1&
#445000
0&
#450000
b0 g$
1&
#455000
0&
#460000
b0 g$
1&
#465000
0&
#470000
b0 g$
1&
#475000
0&
#480000
b0 g$
1&
#485000
0&
#490000
b0 g$
1&
#495000
0&
#500000
b0 g$
1&
#505000
0&
#510000
b0 g$
1&
#515000
0&
#520000
b0 g$
1&
#525000
0&
#530000
b0 g$
1&
#535000
0&
#540000
b0 g$
1&
#545000
0&
#550000
b0 g$
1&
#555000
0&
#560000
b0 g$
1&
#565000
0&
#570000
b0 g$
1&
#575000
0&
#580000
b0 g$
1&
#585000
0&
#590000
b0 g$
1&
#595000
0&
#600000
b0 g$
1&
#605000
0&
#610000
b0 g$
1&
#615000
0&
#620000
b0 g$
1&
#625000
0&
#630000
b0 g$
1&
#635000
0&
#640000
b0 g$
1&
#645000
0&
#650000
b0 g$
1&
#655000
0&
#660000
b0 g$
1&
#665000
0&
#670000
b0 g$
1&
#675000
0&
#680000
b0 g$
1&
#685000
0&
#690000
b0 g$
1&
#695000
0&
#700000
b0 g$
1&
#705000
0&
#710000
b0 g$
1&
#715000
0&
#720000
b0 g$
1&
#725000
0&
#730000
b0 g$
1&
#735000
0&
#740000
b0 g$
1&
#745000
0&
#750000
b0 g$
1&
#755000
0&
#760000
b0 g$
1&
#765000
0&
#770000
b0 g$
1&
#775000
0&
#780000
b0 g$
1&
#785000
0&
#790000
b0 g$
1&
#795000
0&
#800000
b0 g$
1&
#805000
0&
#810000
b0 g$
1&
#815000
0&
#820000
b0 g$
1&
#825000
0&
#830000
b0 g$
1&
#835000
0&
#840000
b0 g$
1&
#845000
0&
